%YAML 1.1
%TAG !u! tag:unity3d.com,2011:
--- !u!1045 &1
EditorBuildSettings:
  m_ObjectHideFlags: 0
  serializedVersion: 2
  m_Scenes:
  - enabled: 1
    path: Assets/Scenes/Final/Main Menu.unity
    guid: f8eeb380750c67e4089c71e350c193c5
  - enabled: 1
    path: Assets/Scenes/Final/Scene_Latest.unity
    guid: e68aadfb3026b4144905371541cc79a3
  m_configObjects: {}
