%YAML 1.1
%TAG !u! tag:unity3d.com,2011:
--- !u!114 &11400000
MonoBehaviour:
  m_ObjectHideFlags: 0
  m_CorrespondingSourceObject: {fileID: 0}
  m_PrefabInternal: {fileID: 0}
  m_GameObject: {fileID: 0}
  m_Enabled: 1
  m_EditorHideFlags: 0
  m_Script: {fileID: 11500000, guid: cf0b22f014ec7be40896c70f04417587, type: 3}
  m_Name: GaiaSettings
  m_EditorClassIdentifier: 
  m_currentController: 0
  m_currentSize: 4
  m_currentEnvironment: 2
  m_currentRenderer: 0
  m_currentDefaults: {fileID: 11400000, guid: 54f4fac3c7f0a1e44a45853d26c87b49, type: 2}
  m_currentResources: {fileID: 11400000, guid: c98e02f9daf2eb944b96f40d0aaed8d4, type: 2}
  m_currentGameObjectResources: {fileID: 11400000, guid: 2b779137b43e398459f18a8610b712de,
    type: 2}
  m_currentSizeDivisor: 1
  m_currentPlayerPrefabName: FPSController
  m_currentWaterPrefabName: Water4Advanced
  m_publisherName: 
  m_fpsPlayerPrefabName: FPSController
  m_3pPlayerPrefabName: ThirdPersonController
  m_rbPlayerPrefabName: RollerBall
  m_waterMobilePrefabName: WaterBasicDaytime
  m_waterPrefabName: Water4Advanced
  m_showTooltips: 1
  m_ultraLightDefaults: {fileID: 11400000, guid: f5d4591d16ae85049a2e06114b74b315,
    type: 2}
  m_ultraLightResources: {fileID: 11400000, guid: 33c0b072fc8e85e43bf3f76a9bf8c955,
    type: 2}
  m_ultraLightGameObjectResources: {fileID: 11400000, guid: 33c0b072fc8e85e43bf3f76a9bf8c955,
    type: 2}
  m_mobileDefaults: {fileID: 11400000, guid: 523e7c864412c3144932b865df8adefa, type: 2}
  m_mobileResources: {fileID: 11400000, guid: 33c0b072fc8e85e43bf3f76a9bf8c955, type: 2}
  m_mobileGameObjectResources: {fileID: 11400000, guid: 33c0b072fc8e85e43bf3f76a9bf8c955,
    type: 2}
  m_desktopDefaults: {fileID: 11400000, guid: 54f4fac3c7f0a1e44a45853d26c87b49, type: 2}
  m_desktopResources: {fileID: 11400000, guid: c98e02f9daf2eb944b96f40d0aaed8d4, type: 2}
  m_desktopGameObjectResources: {fileID: 11400000, guid: 2b779137b43e398459f18a8610b712de,
    type: 2}
  m_powerDesktopDefaults: {fileID: 11400000, guid: 8a65cdbd52f405b40a63e6ea9a15a3d8,
    type: 2}
  m_powerDesktopResources: {fileID: 11400000, guid: 74b981f9b3da33445993da8678cdd662,
    type: 2}
  m_powerDesktopGameObjectResources: {fileID: 11400000, guid: 2b779137b43e398459f18a8610b712de,
    type: 2}
  m_lastWebUpdate: 636779619455641533
  m_hideHeroMessage: 0
  m_latestNewsTitle: 'Gaia 1.7: New Tutorials!'
  m_latestNewsBody: With the release of Gaia 1.7 we have revamped the entire tutorials
    section. Please take a moment to check them out!
  m_latestNewsUrl: http://www.procedural-worlds.com/gaia/?section=tutorials
  m_latestNewsImage: {fileID: 2800000, guid: 523b3ea42fc6f9548a50f412b38e7b76, type: 3}
