%YAML 1.1
%TAG !u! tag:unity3d.com,2011:
--- !u!114 &11400000
MonoBehaviour:
  m_ObjectHideFlags: 0
  m_CorrespondingSourceObject: {fileID: 0}
  m_PrefabInternal: {fileID: 0}
  m_GameObject: {fileID: 0}
  m_Enabled: 1
  m_EditorHideFlags: 0
  m_Script: {fileID: 11500000, guid: 5e2adab648d6e244eae3c8d22070027d, type: 3}
  m_Name: Special
  m_EditorClassIdentifier: 
  itemName: Special Material
  description: This is comprised of compounds not currently identifiable
  icon: {fileID: 0}
  constructionRequirements: []
  constructionTime: 0
  constructionTimeType: 0
